Calculator_Multicycle/Core.vcd
$date
	Sat Dec 23 10:55:58 2023
$end
$version
	Icarus Verilog
$end
$timescale
	1ns
$end
$scope module Core_Testbench $end
$var wire 18 ! memoryData [17:0] $end
$var wire 1 " memoryReadWrite $end
$var wire 1 # memoryEnable $end
$var wire 18 $ memoryAddress [17:0] $end
$var parameter 32 % CLK_PERIOD $end
$var reg 1 & clk $end
$var reg 18 ' memoryData_reg [17:0] $end
$var reg 1 ( reset $end
$scope module uut $end
$var wire 1 & clk $end
$var wire 18 ) memoryData [17:0] $end
$var wire 1 ( reset $end
$var wire 18 * multiplierResult [17:0] $end
$var wire 18 + dividerResult [17:0] $end
$var wire 18 , aluResult [17:0] $end
$var parameter 32 - RESET_ADDRESS $end
$var reg 8 . A [7:0] $end
$var reg 8 / B [7:0] $end
$var reg 8 0 aluOperand_1 [7:0] $end
$var reg 8 1 aluOperand_2 [7:0] $end
$var reg 1 2 aluOperation $end
$var reg 1 3 aluSrc_1 $end
$var reg 1 4 aluSrc_2 $end
$var reg 8 5 divOperand_1 [7:0] $end
$var reg 8 6 divOperand_2 [7:0] $end
$var reg 1 7 dividerEnable $end
$var reg 1 8 funct $end
$var reg 18 9 ir [17:0] $end
$var reg 1 : irWrite $end
$var reg 18 ; memoryAddress [17:0] $end
$var reg 1 # memoryEnable $end
$var reg 1 " memoryReadWrite $end
$var reg 8 < mulOperand_1 [7:0] $end
$var reg 8 = mulOperand_2 [7:0] $end
$var reg 1 > multiplierEnable $end
$var reg 2 ? nextState [1:0] $end
$var reg 1 @ opcode $end
$var reg 18 A pc [17:0] $end
$var reg 1 B pcWrite $end
$var reg 2 C state [1:0] $end
$scope module alu $end
$var wire 8 D operand_1 [7:0] $end
$var wire 8 E operand_2 [7:0] $end
$var wire 1 2 operation $end
$var reg 18 F result [17:0] $end
$upscope $end
$scope module divider $end
$var wire 1 7 enable $end
$var wire 8 G operand_1 [7:0] $end
$var wire 8 H operand_2 [7:0] $end
$var reg 18 I product [17:0] $end
$upscope $end
$scope module multiplier $end
$var wire 1 > enable $end
$var wire 8 J operand_1 [7:0] $end
$var wire 8 K operand_2 [7:0] $end
$var reg 18 L product [17:0] $end
$upscope $end
$upscope $end
$upscope $end
$enddefinitions $end
$comment Show the parameter values. $end
$dumpall
b0 -
b100 %
$end
#0
$dumpvars
bz L
bx K
bx J
bz I
bx H
bx G
bz F
bz E
bz D
b0 C
zB
b0 A
x@
b1 ?
z>
bx =
bx <
bx ;
z:
bz 9
x8
z7
bx 6
bx 5
z4
z3
z2
bz 1
bz 0
bx /
bx .
bz ,
bz +
bz *
bz )
1(
bz '
1&
bx $
0#
z"
bz !
$end
#2
0&
#4
1&
#6
0&
#8
1&
#10
0&
#12
1&
#14
0&
#16
1&
#18
0&
#20
0(
1&
#22
0&
#24
b110010111110110001 !
b110010111110110001 )
b110010111110110001 '
b1 ,
b1 F
b1 1
b1 E
b0 0
b0 D
1B
02
04
03
1:
1#
0"
b0 $
b0 ;
b10 ?
b1 C
1&
#26
0&
#28
bz !
bz )
bz '
0#
bz ,
bz F
bz 1
bz E
bz 0
bz D
b10110001 /
b101111 .
18
1@
z4
z3
z2
0:
zB
z"
b11 ?
b110010111110110001 9
b1 A
b10 C
1&
#30
0&
#32
b0 +
b0 I
17
b10110001 6
b10110001 H
b101111 5
b101111 G
z:
b1 ?
b11 C
1&
#34
0&
#36
b10111110010101110 !
b10111110010101110 )
b10111110010101110 '
b10 ,
b10 F
b1 1
b1 E
b1 0
b1 D
bz +
bz I
1B
02
04
03
1:
1#
0"
b1 $
b1 ;
z7
b10 ?
b1 C
1&
#38
0&
#40
bz !
bz )
bz '
0#
bz ,
bz F
bz 1
bz E
bz 0
bz D
b10101110 /
b1111100 .
0@
z4
z3
z2
0:
zB
z"
b11 ?
b10 C
b10 A
b10111110010101110 9
1&
#42
0&
#44
b111111111111001110 ,
b111111111111001110 F
b10101110 1
b10101110 E
b1111100 0
b1111100 D
12
14
13
z:
b1 ?
b11 C
1&
#46
0&
#48
b110101110011110110 !
b110101110011110110 )
b110101110011110110 '
b1 1
b1 E
b10 0
b10 D
b11 ,
b11 F
1B
1:
1#
0"
b10 $
b10 ;
04
03
02
b10 ?
b1 C
1&
#50
0&
#52
bz !
bz )
bz '
0#
bz ,
bz F
bz 1
bz E
bz 0
bz D
b11110110 /
b1011100 .
1@
z4
z3
z2
0:
zB
z"
b11 ?
b110101110011110110 9
b11 A
b10 C
1&
#54
0&
#56
b0 +
b0 I
17
b11110110 6
b11110110 H
b1011100 5
b1011100 G
z:
b1 ?
b11 C
1&
#58
0&
#60
b10011101100001011 !
b10011101100001011 )
b10011101100001011 '
b100 ,
b100 F
b1 1
b1 E
b11 0
b11 D
bz +
bz I
1B
02
04
03
1:
1#
0"
b11 $
b11 ;
z7
b10 ?
b1 C
1&
#62
0&
#64
bz !
bz )
bz '
0#
bz ,
bz F
bz 1
bz E
bz 0
bz D
b1011 /
b111011 .
0@
z4
z3
z2
0:
zB
z"
b11 ?
b10 C
b100 A
b10011101100001011 9
1&
#66
0&
#68
b110000 ,
b110000 F
b1011 1
b1011 E
b111011 0
b111011 D
12
14
13
z:
b1 ?
b11 C
1&
#70
0&
#72
b11001010010111001 !
b11001010010111001 )
b11001010010111001 '
b1 1
b1 E
b100 0
b100 D
b101 ,
b101 F
1B
1:
1#
0"
b100 $
b100 ;
04
03
02
b10 ?
b1 C
1&
#74
0&
#76
bz !
bz )
bz '
0#
bz ,
bz F
bz 1
bz E
bz 0
bz D
b10111001 /
b10010100 .
z4
z3
z2
0:
zB
z"
b11 ?
b11001010010111001 9
b101 A
b10 C
1&
#78
0&
#80
b111111111111011011 ,
b111111111111011011 F
b10111001 1
b10111001 E
b10010100 0
b10010100 D
12
14
13
z:
b1 ?
b11 C
1&
#82
0&
#84
b1000101000100110 !
b1000101000100110 )
b1000101000100110 '
b1 1
b1 E
b101 0
b101 D
b110 ,
b110 F
1B
1:
1#
0"
b101 $
b101 ;
04
03
02
b10 ?
b1 C
1&
#86
0&
#88
bz !
bz )
bz '
0#
bz ,
bz F
bz 1
bz E
bz 0
bz D
b100110 /
b10001010 .
08
z4
z3
z2
0:
zB
z"
b11 ?
b10 C
b110 A
b1000101000100110 9
1&
#90
0&
#92
b10110000 ,
b10110000 F
b100110 1
b100110 E
b10001010 0
b10001010 D
02
14
13
z:
b1 ?
b11 C
1&
#94
0&
#96
b101111011001110011 !
b101111011001110011 )
b101111011001110011 '
b111 ,
b111 F
b1 1
b1 E
b110 0
b110 D
1B
1:
1#
0"
b110 $
b110 ;
04
03
02
b10 ?
b1 C
1&
#98
0&
#100
bz !
bz )
bz '
0#
bz ,
bz F
bz 1
bz E
bz 0
bz D
b1110011 /
b11110110 .
1@
z4
z3
z2
0:
zB
z"
b11 ?
b101111011001110011 9
b111 A
b10 C
1&
#102
0&
#104
b110111010000010 *
b110111010000010 L
1>
b1110011 =
b1110011 K
b11110110 <
b11110110 J
z:
b1 ?
b11 C
1&
#106
0&
#108
b11000011110111 !
b11000011110111 )
b11000011110111 '
b1000 ,
b1000 F
b1 1
b1 E
b111 0
b111 D
bz *
bz L
1B
02
04
03
1:
1#
0"
b111 $
b111 ;
z>
b10 ?
b1 C
1&
#110
0&
#112
bz !
bz )
bz '
0#
bz ,
bz F
bz 1
bz E
bz 0
bz D
b11110111 /
b110000 .
0@
z4
z3
z2
0:
zB
z"
b11 ?
b10 C
b1000 A
b11000011110111 9
1&
#114
0&
#116
b100100111 ,
b100100111 F
b11110111 1
b11110111 E
b110000 0
b110000 D
02
14
13
z:
b1 ?
b11 C
1&
#118
0&
#120
b10001110110110100 !
b10001110110110100 )
b10001110110110100 '
b1001 ,
b1001 F
b1 1
b1 E
b1000 0
b1000 D
1B
1:
1#
0"
b1000 $
b1000 ;
04
03
02
b10 ?
b1 C
1&
#122
0&
#124
bz !
bz )
bz '
0#
bz ,
bz F
bz 1
bz E
bz 0
bz D
b10110100 /
b11101 .
18
z4
z3
z2
0:
zB
z"
b11 ?
b10001110110110100 9
b1001 A
b10 C
1&
#126
0&
#128
b111111111101101001 ,
b111111111101101001 F
b10110100 1
b10110100 E
b11101 0
b11101 D
12
14
13
z:
b1 ?
b11 C
1&
#130
0&
#132
b11001000011011101 !
b11001000011011101 )
b11001000011011101 '
b1 1
b1 E
b1001 0
b1001 D
b1010 ,
b1010 F
1B
1:
1#
0"
b1001 $
b1001 ;
04
03
02
b10 ?
b1 C
1&
#134
0&
#136
bz !
bz )
bz '
0#
bz ,
bz F
bz 1
bz E
bz 0
bz D
b11011101 /
b10010000 .
z4
z3
z2
0:
zB
z"
b11 ?
b10 C
b1010 A
b11001000011011101 9
1&
#138
0&
#140
b111111111110110011 ,
b111111111110110011 F
b11011101 1
b11011101 E
b10010000 0
b10010000 D
12
14
13
z:
b1 ?
b11 C
1&
#142
0&
#144
b101110100101110010 !
b101110100101110010 )
b101110100101110010 '
b1 1
b1 E
b1010 0
b1010 D
b1011 ,
b1011 F
1B
1:
1#
0"
b1010 $
b1010 ;
04
03
02
b10 ?
b1 C
1&
#146
0&
#148
bz !
bz )
bz '
0#
bz ,
bz F
bz 1
bz E
bz 0
bz D
b1110010 /
b11101001 .
08
1@
z4
z3
z2
0:
zB
z"
b11 ?
b101110100101110010 9
b1011 A
b10 C
1&
#150
0&
#152
b110011111000010 *
b110011111000010 L
1>
b1110010 =
b1110010 K
b11101001 <
b11101001 J
z:
b1 ?
b11 C
1&
#154
0&
#156
b101001101011110101 !
b101001101011110101 )
b101001101011110101 '
b1100 ,
b1100 F
b1 1
b1 E
b1011 0
b1011 D
bz *
bz L
1B
02
04
03
1:
1#
0"
b1011 $
b1011 ;
z>
b10 ?
b1 C
1&
#158
0&
#160
bz !
bz )
bz '
0#
bz ,
bz F
bz 1
bz E
bz 0
bz D
b11110101 /
b10011010 .
z4
z3
z2
0:
zB
z"
b11 ?
b10 C
b1100 A
b101001101011110101 9
1&
#162
0&
#164
b1001001101100010 *
b1001001101100010 L
1>
b11110101 =
b11110101 K
b10011010 <
b10011010 J
z:
b1 ?
b11 C
1&
#166
0&
#168
b110001101111110110 !
b110001101111110110 )
b110001101111110110 '
b1101 ,
b1101 F
b1 1
b1 E
b1100 0
b1100 D
bz *
bz L
1B
02
04
03
1:
1#
0"
b1100 $
b1100 ;
z>
b10 ?
b1 C
1&
#170
0&
#172
bz !
bz )
bz '
0#
bz ,
bz F
bz 1
bz E
bz 0
bz D
b11110110 /
b11011 .
18
z4
z3
z2
0:
zB
z"
b11 ?
b110001101111110110 9
b1101 A
b10 C
1&
#174
0&
#176
b0 +
b0 I
17
b11011 5
b11011 G
z:
b1 ?
b11 C
1&
#178
0&
#180
b111001011010001010 !
b111001011010001010 )
b111001011010001010 '
b1110 ,
b1110 F
b1 1
b1 E
b1101 0
b1101 D
bz +
bz I
1B
02
04
03
1:
1#
0"
b1101 $
b1101 ;
z7
b10 ?
b1 C
1&
#182
0&
#184
bz !
bz )
bz '
0#
bz ,
bz F
bz 1
bz E
bz 0
bz D
b10001010 /
b10010110 .
z4
z3
z2
0:
zB
z"
b11 ?
b10 C
b1110 A
b111001011010001010 9
1&
#186
0&
#188
b1 +
b1 I
17
b10001010 6
b10001010 H
b10010110 5
b10010110 G
z:
b1 ?
b11 C
1&
#190
0&
#192
b11010101001111100 !
b11010101001111100 )
b11010101001111100 '
b1111 ,
b1111 F
b1 1
b1 E
b1110 0
b1110 D
bz +
bz I
1B
02
04
03
1:
1#
0"
b1110 $
b1110 ;
z7
b10 ?
b1 C
1&
#194
0&
#196
bz !
bz )
bz '
0#
bz ,
bz F
bz 1
bz E
bz 0
bz D
b1111100 /
b10101010 .
0@
z4
z3
z2
0:
zB
z"
b11 ?
b11010101001111100 9
b1111 A
b10 C
1&
#198
0&
#200
b101110 ,
b101110 F
b1111100 1
b1111100 E
b10101010 0
b10101010 D
12
14
13
z:
b1 ?
b11 C
1&
#202
0&
#204
b110100000110100010 !
b110100000110100010 )
b110100000110100010 '
b1 1
b1 E
b1111 0
b1111 D
b10000 ,
b10000 F
1B
1:
1#
0"
b1111 $
b1111 ;
04
03
02
b10 ?
b1 C
1&
#206
0&
#208
bz !
bz )
bz '
0#
bz ,
bz F
bz 1
bz E
bz 0
bz D
b10100010 /
b1000001 .
1@
z4
z3
z2
0:
zB
z"
b11 ?
b10 C
b10000 A
b110100000110100010 9
1&
#210
0&
#212
b0 +
b0 I
17
b10100010 6
b10100010 H
b1000001 5
b1000001 G
z:
b1 ?
b11 C
1&
#214
0&
#216
b101010101111000011 !
b101010101111000011 )
b101010101111000011 '
b10001 ,
b10001 F
b1 1
b1 E
b10000 0
b10000 D
bz +
bz I
1B
02
04
03
1:
1#
0"
b10000 $
b10000 ;
z7
b10 ?
b1 C
1&
#218
0&
#220
bz !
bz )
bz '
0#
bz ,
bz F
bz 1
bz E
bz 0
bz D
b11000011 /
b10101011 .
08
z4
z3
z2
0:
zB
z"
b11 ?
b101010101111000011 9
b10001 A
b10 C
1&
#222
0&
#224
b1000001001000001 *
b1000001001000001 L
1>
b11000011 =
b11000011 K
b10101011 <
b10101011 J
z:
b1 ?
b11 C
1&
#226
0&
#228
b1111110100110101 !
b1111110100110101 )
b1111110100110101 '
b10010 ,
b10010 F
b1 1
b1 E
b10001 0
b10001 D
bz *
bz L
1B
02
04
03
1:
1#
0"
b10001 $
b10001 ;
z>
b10 ?
b1 C
1&
#230
0&
#232
bz !
bz )
bz '
0#
bz ,
bz F
bz 1
bz E
bz 0
bz D
b110101 /
b11111101 .
0@
z4
z3
z2
0:
zB
z"
b11 ?
b10 C
b10010 A
b1111110100110101 9
1&
#234
0&
#236
b100110010 ,
b100110010 F
b110101 1
b110101 E
b11111101 0
b11111101 D
02
14
13
z:
b1 ?
b11 C
1&
#238
0&
#240
b1100010110101101 !
b1100010110101101 )
b1100010110101101 '
b10011 ,
b10011 F
b1 1
b1 E
b10010 0
b10010 D
1B
1:
1#
0"
b10010 $
b10010 ;
04
03
02
b10 ?
b1 C
1&
#242
0&
#244
bz !
bz )
bz '
0#
bz ,
bz F
bz 1
bz E
bz 0
bz D
b10101101 /
b11000101 .
z4
z3
z2
0:
zB
z"
b11 ?
b1100010110101101 9
b10011 A
b10 C
1&
#246
0&
#248
b101110010 ,
b101110010 F
b10101101 1
b10101101 E
b11000101 0
b11000101 D
02
14
13
z:
b1 ?
b11 C
1&
#250
0&
#252
b100100011110011 !
b100100011110011 )
b100100011110011 '
b10100 ,
b10100 F
b1 1
b1 E
b10011 0
b10011 D
1B
1:
1#
0"
b10011 $
b10011 ;
04
03
02
b10 ?
b1 C
1&
#254
0&
#256
bz !
bz )
bz '
0#
bz ,
bz F
bz 1
bz E
bz 0
bz D
b11110011 /
b1001000 .
z4
z3
z2
0:
zB
z"
b11 ?
b10 C
b10100 A
b100100011110011 9
1&
#258
0&
#260
b100111011 ,
b100111011 F
b11110011 1
b11110011 E
b1001000 0
b1001000 D
02
14
13
z:
b1 ?
b11 C
1&
#262
0&
#264
b101111111111000110 !
b101111111111000110 )
b101111111111000110 '
b10101 ,
b10101 F
b1 1
b1 E
b10100 0
b10100 D
1B
1:
1#
0"
b10100 $
b10100 ;
04
03
02
b10 ?
b1 C
1&
#266
0&
#268
bz !
bz )
bz '
0#
bz ,
bz F
bz 1
bz E
bz 0
bz D
b11000110 /
b11111111 .
1@
z4
z3
z2
0:
zB
z"
b11 ?
b101111111111000110 9
b10101 A
b10 C
1&
#270
0&
#272
b1100010100111010 *
b1100010100111010 L
1>
b11000110 =
b11000110 K
b11111111 <
b11111111 J
z:
b1 ?
b11 C
1&
#274
0&
#276
b11111101111110100 !
b11111101111110100 )
b11111101111110100 '
b10110 ,
b10110 F
b1 1
b1 E
b10101 0
b10101 D
bz *
bz L
1B
02
04
03
1:
1#
0"
b10101 $
b10101 ;
z>
b10 ?
b1 C
1&
#278
0&
#280
bz !
bz )
bz '
0#
bz ,
bz F
bz 1
bz E
bz 0
bz D
b11110100 /
b11111011 .
18
0@
z4
z3
z2
0:
zB
z"
b11 ?
b10 C
b10110 A
b11111101111110100 9
1&
#282
0&
#284
b111 ,
b111 F
b11110100 1
b11110100 E
b11111011 0
b11111011 D
12
14
13
z:
b1 ?
b11 C
1&
#286
0&
#288
b100010001011011001 !
b100010001011011001 )
b100010001011011001 '
b1 1
b1 E
b10110 0
b10110 D
b10111 ,
b10111 F
1B
1:
1#
0"
b10110 $
b10110 ;
04
03
02
b10 ?
b1 C
1&
#290
0&
#292
bz !
bz )
bz '
0#
bz ,
bz F
bz 1
bz E
bz 0
bz D
b11011001 /
b100010 .
08
1@
z4
z3
z2
0:
zB
z"
b11 ?
b100010001011011001 9
b10111 A
b10 C
1&
#294
0&
#296
b1110011010010 *
b1110011010010 L
1>
b11011001 =
b11011001 K
b100010 <
b100010 J
z:
b1 ?
b11 C
1&
#298
0&
#300
b10010010001001101 !
b10010010001001101 )
b10010010001001101 '
b11000 ,
b11000 F
b1 1
b1 E
b10111 0
b10111 D
bz *
bz L
1B
02
04
03
1:
1#
0"
b10111 $
b10111 ;
z>
b10 ?
b1 C
1&
#302
0&
#304
bz !
bz )
bz '
0#
bz ,
bz F
bz 1
bz E
bz 0
bz D
b1001101 /
b100100 .
18
0@
z4
z3
z2
0:
zB
z"
b11 ?
b10 C
b11000 A
b10010010001001101 9
1&
#306
0&
#308
b111111111111010111 ,
b111111111111010111 F
b1001101 1
b1001101 E
b100100 0
b100100 D
12
14
13
z:
b1 ?
b11 C
1&
#310
0&
#312
b1010010111111010 !
b1010010111111010 )
b1010010111111010 '
b1 1
b1 E
b11000 0
b11000 D
b11001 ,
b11001 F
1B
1:
1#
0"
b11000 $
b11000 ;
04
03
02
b10 ?
b1 C
1&
#314
0&
#316
bz !
bz )
bz '
0#
bz ,
bz F
bz 1
bz E
bz 0
bz D
b11111010 /
b10100101 .
08
z4
z3
z2
0:
zB
z"
b11 ?
b1010010111111010 9
b11001 A
b10 C
1&
#318
0&
#320
b110011111 ,
b110011111 F
b11111010 1
b11111010 E
b10100101 0
b10100101 D
02
14
13
z:
b1 ?
b11 C
1&
#322
0&
#324
b101100010010000111 !
b101100010010000111 )
b101100010010000111 '
b11010 ,
b11010 F
b1 1
b1 E
b11001 0
b11001 D
1B
1:
1#
0"
b11001 $
b11001 ;
04
03
02
b10 ?
b1 C
1&
#326
0&
#328
bz !
bz )
bz '
0#
bz ,
bz F
bz 1
bz E
bz 0
bz D
b10000111 /
b11000100 .
1@
z4
z3
z2
0:
zB
z"
b11 ?
b10 C
b11010 A
b101100010010000111 9
1&
#330
0&
#332
b110011101011100 *
b110011101011100 L
1>
b10000111 =
b10000111 K
b11000100 <
b11000100 J
z:
b1 ?
b11 C
1&
#334
0&
#336
b1101001000000100 !
b1101001000000100 )
b1101001000000100 '
b11011 ,
b11011 F
b1 1
b1 E
b11010 0
b11010 D
bz *
bz L
1B
02
04
03
1:
1#
0"
b11010 $
b11010 ;
z>
b10 ?
b1 C
1&
#338
0&
#340
bz !
bz )
bz '
0#
bz ,
bz F
bz 1
bz E
bz 0
bz D
b100 /
b11010010 .
0@
z4
z3
z2
0:
zB
z"
b11 ?
b1101001000000100 9
b11011 A
b10 C
1&
#342
0&
#344
b11010110 ,
b11010110 F
b100 1
b100 E
b11010010 0
b11010010 D
02
14
13
z:
b1 ?
b11 C
1&
#346
0&
#348
b110011110011010100 !
b110011110011010100 )
b110011110011010100 '
b11100 ,
b11100 F
b1 1
b1 E
b11011 0
b11011 D
1B
1:
1#
0"
b11011 $
b11011 ;
04
03
02
b10 ?
b1 C
1&
#350
0&
#352
bz !
bz )
bz '
0#
bz ,
bz F
bz 1
bz E
bz 0
bz D
b11010100 /
b111100 .
18
1@
z4
z3
z2
0:
zB
z"
b11 ?
b10 C
b11100 A
b110011110011010100 9
1&
#354
0&
#356
b0 +
b0 I
17
b11010100 6
b11010100 H
b111100 5
b111100 G
z:
b1 ?
b11 C
1&
#358
0&
#360
b100110111011011000 !
b100110111011011000 )
b100110111011011000 '
b11101 ,
b11101 F
b1 1
b1 E
b11100 0
b11100 D
bz +
bz I
1B
02
04
03
1:
1#
0"
b11100 $
b11100 ;
z7
b10 ?
b1 C
1&
#362
0&
#364
bz !
bz )
bz '
0#
bz ,
bz F
bz 1
bz E
bz 0
bz D
b11011000 /
b1101110 .
08
z4
z3
z2
0:
zB
z"
b11 ?
b100110111011011000 9
b11101 A
b10 C
1&
#366
0&
#368
b101110011010000 *
b101110011010000 L
1>
b11011000 =
b11011000 K
b1101110 <
b1101110 J
z:
b1 ?
b11 C
1&
#370
0&
#372
b111010111011111 !
b111010111011111 )
b111010111011111 '
b11110 ,
b11110 F
b1 1
b1 E
b11101 0
b11101 D
bz *
bz L
1B
02
04
03
1:
1#
0"
b11101 $
b11101 ;
z>
b10 ?
b1 C
1&
#374
0&
#376
bz !
bz )
bz '
0#
bz ,
bz F
bz 1
bz E
bz 0
bz D
b11011111 /
b1110101 .
0@
z4
z3
z2
0:
zB
z"
b11 ?
b10 C
b11110 A
b111010111011111 9
1&
#378
0&
#380
b101010100 ,
b101010100 F
b11011111 1
b11011111 E
b1110101 0
b1110101 D
02
14
13
z:
b1 ?
b11 C
1&
#382
0&
#384
b111110111101010111 !
b111110111101010111 )
b111110111101010111 '
b11111 ,
b11111 F
b1 1
b1 E
b11110 0
b11110 D
1B
1:
1#
0"
b11110 $
b11110 ;
04
03
02
b10 ?
b1 C
1&
#386
0&
#388
bz !
bz )
bz '
0#
bz ,
bz F
bz 1
bz E
bz 0
bz D
b1010111 /
b11101111 .
18
1@
z4
z3
z2
0:
zB
z"
b11 ?
b111110111101010111 9
b11111 A
b10 C
1&
#390
0&
#392
b10 +
b10 I
17
b1010111 6
b1010111 H
b11101111 5
b11101111 G
z:
b1 ?
b11 C
1&
#394
0&
#396
b100110100101101010 !
b100110100101101010 )
b100110100101101010 '
b100000 ,
b100000 F
b1 1
b1 E
b11111 0
b11111 D
bz +
bz I
1B
02
04
03
1:
1#
0"
b11111 $
b11111 ;
z7
b10 ?
b1 C
1&
#398
0&
#400
bz !
bz )
bz '
0#
bz ,
bz F
bz 1
bz E
bz 0
bz D
b1101010 /
b1101001 .
08
z4
z3
z2
0:
zB
z"
b11 ?
b10 C
b100000 A
b100110100101101010 9
1&
#402
0&
#404
b10101101111010 *
b10101101111010 L
1>
b1101010 =
b1101010 K
b1101001 <
b1101001 J
z:
b1 ?
b11 C
1&
#406
0&
#408
b10111010010 !
b10111010010 )
b10111010010 '
b100001 ,
b100001 F
b1 1
b1 E
b100000 0
b100000 D
bz *
bz L
1B
02
04
03
1:
1#
0"
b100000 $
b100000 ;
z>
b10 ?
b1 C
1&
#410
0&
#412
bz !
bz )
bz '
0#
bz ,
bz F
bz 1
bz E
bz 0
bz D
b11010010 /
b101 .
0@
z4
z3
z2
0:
zB
z"
b11 ?
b10111010010 9
b100001 A
b10 C
1&
#414
0&
#416
b11010111 ,
b11010111 F
b11010010 1
b11010010 E
b101 0
b101 D
02
14
13
z:
b1 ?
b11 C
1&
#418
0&
#420
b100110001011010000 !
b100110001011010000 )
b100110001011010000 '
b100010 ,
b100010 F
b1 1
b1 E
b100001 0
b100001 D
1B
1:
1#
0"
b100001 $
b100001 ;
04
03
02
b10 ?
b1 C
1&
#422
0&
#424
bz !
bz )
bz '
0#
bz ,
bz F
bz 1
bz E
bz 0
bz D
b11010000 /
b1100010 .
1@
z4
z3
z2
0:
zB
z"
b11 ?
b10 C
b100010 A
b100110001011010000 9
1&
#426
0&
#428
b100111110100000 *
b100111110100000 L
1>
b11010000 =
b11010000 K
b1100010 <
b1100010 J
z:
b1 ?
b11 C
1&
#430
0&
#432
b10011101011011010 !
b10011101011011010 )
b10011101011011010 '
b100011 ,
b100011 F
b1 1
b1 E
b100010 0
b100010 D
bz *
bz L
1B
02
04
03
1:
1#
0"
b100010 $
b100010 ;
z>
b10 ?
b1 C
1&
#434
0&
#436
bz !
bz )
bz '
0#
bz ,
bz F
bz 1
bz E
bz 0
bz D
b11011010 /
b111010 .
18
0@
z4
z3
z2
0:
zB
z"
b11 ?
b10011101011011010 9
b100011 A
b10 C
1&
#438
0&
#440
b111111111101100000 ,
b111111111101100000 F
b11011010 1
b11011010 E
b111010 0
b111010 D
12
14
13
z:
b1 ?
b11 C
1&
#442
0&
#444
b10101011010000001 !
b10101011010000001 )
b10101011010000001 '
b1 1
b1 E
b100011 0
b100011 D
b100100 ,
b100100 F
1B
1:
1#
0"
b100011 $
b100011 ;
04
03
02
b10 ?
b1 C
1&
#446
0&
#448
bz !
bz )
bz '
0#
bz ,
bz F
bz 1
bz E
bz 0
bz D
b10000001 /
b1010110 .
z4
z3
z2
0:
zB
z"
b11 ?
b10 C
b100100 A
b10101011010000001 9
1&
#450
0&
#452
b111111111111010101 ,
b111111111111010101 F
b10000001 1
b10000001 E
b1010110 0
b1010110 D
12
14
13
z:
b1 ?
b11 C
1&
#454
0&
#456
b101010011100010100 !
b101010011100010100 )
b101010011100010100 '
b1 1
b1 E
b100100 0
b100100 D
b100101 ,
b100101 F
1B
1:
1#
0"
b100100 $
b100100 ;
04
03
02
b10 ?
b1 C
1&
#458
0&
#460
bz !
bz )
bz '
0#
bz ,
bz F
bz 1
bz E
bz 0
bz D
b10100 /
b10100111 .
08
1@
z4
z3
z2
0:
zB
z"
b11 ?
b101010011100010100 9
b100101 A
b10 C
1&
#462
0&
#464
b110100001100 *
b110100001100 L
1>
b10100 =
b10100 K
b10100111 <
b10100111 J
z:
b1 ?
b11 C
1&
#466
0&
#468
b100000110011000110 !
b100000110011000110 )
b100000110011000110 '
b100110 ,
b100110 F
b1 1
b1 E
b100101 0
b100101 D
bz *
bz L
1B
02
04
03
1:
1#
0"
b100101 $
b100101 ;
z>
b10 ?
b1 C
1&
#470
0&
#472
bz !
bz )
bz '
0#
bz ,
bz F
bz 1
bz E
bz 0
bz D
b11000110 /
b1100 .
z4
z3
z2
0:
zB
z"
b11 ?
b10 C
b100110 A
b100000110011000110 9
1&
#474
0&
#476
b100101001000 *
b100101001000 L
1>
b11000110 =
b11000110 K
b1100 <
b1100 J
z:
b1 ?
b11 C
1&
#478
0&
#480
b11010110111101101 !
b11010110111101101 )
b11010110111101101 '
b100111 ,
b100111 F
b1 1
b1 E
b100110 0
b100110 D
bz *
bz L
1B
02
04
03
1:
1#
0"
b100110 $
b100110 ;
z>
b10 ?
b1 C
1&
#482
0&
#484
bz !
bz )
bz '
0#
bz ,
bz F
bz 1
bz E
bz 0
bz D
b11101101 /
b10101101 .
18
0@
z4
z3
z2
0:
zB
z"
b11 ?
b11010110111101101 9
b100111 A
b10 C
1&
#486
0&
#488
b111111111111000000 ,
b111111111111000000 F
b11101101 1
b11101101 E
b10101101 0
b10101101 D
12
14
13
z:
b1 ?
b11 C
1&
#490
0&
#492
b111110011111010 !
b111110011111010 )
b111110011111010 '
b1 1
b1 E
b100111 0
b100111 D
b101000 ,
b101000 F
1B
1:
1#
0"
b100111 $
b100111 ;
04
03
02
b10 ?
b1 C
1&
#494
0&
#496
bz !
bz )
bz '
0#
bz ,
bz F
bz 1
bz E
bz 0
bz D
b11111010 /
b1111100 .
08
z4
z3
z2
0:
zB
z"
b11 ?
b10 C
b101000 A
b111110011111010 9
1&
#498
0&
#500
b101110110 ,
b101110110 F
b11111010 1
b11111010 E
b1111100 0
b1111100 D
02
14
13
z:
b1 ?
b11 C
1&
#502
0&
#504
b11101100111111010 !
b11101100111111010 )
b11101100111111010 '
b101001 ,
b101001 F
b1 1
b1 E
b101000 0
b101000 D
1B
1:
1#
0"
b101000 $
b101000 ;
04
03
02
b10 ?
b1 C
1&
#506
0&
#508
bz !
bz )
bz '
0#
bz ,
bz F
bz 1
bz E
bz 0
bz D
b11011001 .
18
z4
z3
z2
0:
zB
z"
b11 ?
b11101100111111010 9
b101001 A
b10 C
1&
#510
0&
#512
b111111111111011111 ,
b111111111111011111 F
b11111010 1
b11111010 E
b11011001 0
b11011001 D
12
14
13
z:
b1 ?
b11 C
1&
#514
0&
#516
b100011101110001000 !
b100011101110001000 )
b100011101110001000 '
b1 1
b1 E
b101001 0
b101001 D
b101010 ,
b101010 F
1B
1:
1#
0"
b101001 $
b101001 ;
04
03
02
b10 ?
b1 C
1&
#518
0&
#520
bz !
bz )
bz '
0#
bz ,
bz F
bz 1
bz E
bz 0
bz D
b10001000 /
b111011 .
08
1@
z4
z3
z2
0:
zB
z"
b11 ?
b10 C
b101010 A
b100011101110001000 9
1&
#522
0&
#524
b1111101011000 *
b1111101011000 L
1>
b10001000 =
b10001000 K
b111011 <
b111011 J
z:
b1 ?
b11 C
1&
#526
0&
#528
b101110111000000010 !
b101110111000000010 )
b101110111000000010 '
b101011 ,
b101011 F
b1 1
b1 E
b101010 0
b101010 D
bz *
bz L
1B
02
04
03
1:
1#
0"
b101010 $
b101010 ;
z>
b10 ?
b1 C
1&
#530
0&
#532
bz !
bz )
bz '
0#
bz ,
bz F
bz 1
bz E
bz 0
bz D
b10 /
b11101110 .
z4
z3
z2
0:
zB
z"
b11 ?
b101110111000000010 9
b101011 A
b10 C
1&
#534
0&
#536
b111011100 *
b111011100 L
1>
b10 =
b10 K
b11101110 <
b11101110 J
z:
b1 ?
b11 C
1&
#538
0&
#540
b1010001111110010 !
b1010001111110010 )
b1010001111110010 '
b101100 ,
b101100 F
b1 1
b1 E
b101011 0
b101011 D
bz *
bz L
1B
02
04
03
1:
1#
0"
b101011 $
b101011 ;
z>
b10 ?
b1 C
1&
#542
0&
